00:21:AD:00:00:01
00:21:AD:00:00:02
00:21:AD:00:00:03
00:21:AD:00:00:04
00:21:AD:00:00:05
00:21:AD:00:00:06
00:21:AD:00:00:07
00:21:AD:00:00:08
00:21:AD:00:00:09
00:21:AD:00:00:10
00:21:AD:00:00:11
00:21:AD:00:00:12
00:21:AD:00:00:13
00:21:AD:00:00:14
00:21:AD:00:00:15
00:21:AD:00:00:16
00:21:AD:00:00:17
00:21:AD:00:00:18
00:21:AD:00:00:19
00:21:AD:00:00:20
